  121.979917 cm^{-1} ... 1 
  115.597072 cm^{-1} ... 1 
   33.770363 cm^{-1} ... 0 
   66.949461 cm^{-1} ... 0 
   74.678421 cm^{-1} ... 0 
   92.601236 cm^{-1} ... 0 
  464.104382 cm^{-1} ... 0 
  781.337557 cm^{-1} ... 0 
  948.881585 cm^{-1} ... 0 
  960.861600 cm^{-1} ... 0 
 1033.850377 cm^{-1} ... 0 
 1077.343568 cm^{-1} ... 0 
 1193.746233 cm^{-1} ... 0 
 1339.376506 cm^{-1} ... 0 
 1421.429298 cm^{-1} ... 0 
 1622.302894 cm^{-1} ... 0 
 3117.768654 cm^{-1} ... 0 
 3128.261477 cm^{-1} ... 0 
 3198.032814 cm^{-1} ... 0 
 3224.469716 cm^{-1} ... 0 
 3274.666914 cm^{-1} ... 0 
